2021-04-30 03:45:35pm NEW contact created
first_name - "wwww"
last_name - "kkk"
subject - "dfsdf"
message - "dsfaf"
email - "dslkl@zzz.com"

2021-04-30 04:27:54pm NEW contact created
first_name - "\u041b\u0432\u043e\u043b"
last_name - "\u041b\u0430\u043e\u043b"
subject - "\u041b\u0430\u043b\u043b\u0430"
message - "\u041b\u043e\u0432\u043b\u043b\u0430"
email - "Hdjj@mail.ru"

2021-04-30 04:30:36pm NEW contact created
first_name - "Hhh"
last_name - "Hhhh"
subject - "Uuuu"
message - "Jdhdjbd djdbbd "
email - "Gmail@hsbjj.com"

2021-05-04 08:59:32am NEW contact created
first_name - "sdaf"
last_name - ""
subject - ""
message - ""
email - "sdfsdf@gmail.com"

2021-05-04 09:52:24am NEW contact created

2021-05-04 09:53:41am NEW contact created
first_name - Hello
last_name - moto
subject - Subject
message - some text
email - yuriks2000@dfadfaf.com

2021-05-04 09:53:41am NEW contact created

2021-05-04 09:57:54am NEW contact created


2021-05-04 09:57:54am NEW contact created
first_name - Русский
last_name - Тест
subject - Тема
message - текст письма
email - lalal@gmail.com

2021-05-04 09:57:54am NEW contact created


2021-05-04 10:15:10amError


2021-05-04 10:15:10am NEW contact created
first_name - asdfa
last_name - asdf
subject - sadfsdfsadsdf
message - sdfasdfsdfds ds fdsaf
email - sadfsdafdsa@dsfds.com

2021-05-04 10:15:10amError


2021-05-04 10:17:14am


2021-05-04 10:17:14am NEW contact created
first_name - zzzz
last_name - zzzzzzz
subject - sdfdsafdsa
message - asfdsdfa
email - sadfsdfdcdd@gmail.com

2021-05-04 10:17:14am


2021-05-04 10:22:40am
"Email sent successfully"

2021-05-04 10:22:40am NEW contact created
first_name - asdfasfdsa
last_name - dfsdaf
subject - asdfsdaf
message - sadfdfdf 1111
email - 111@gmail.com

2021-05-04 10:22:40am
"null"

2021-05-04 10:30:21am NEW contact created
first_name - 111
last_name - 
subject - 
message - 
email - 111@gmail.com

2021-05-04 10:30:21am
"{\"message\":\"Contact already exists\",\"identityProfile\":{\"vid\":2501,\"identity\":[{\"value\":\"111@gmail.com\",\"type\":\"EMAIL\",\"timestamp\":1620123760606,\"isPrimary\":true},{\"value\":\"ee86343f-8e6d-4d0d-b3c9-8212f9eeaf6d\",\"type\":\"LEAD_GUID\",\"timestamp\":1620123760658}],\"linkedVid\":[],\"isContact\":true,\"savedAtTimestamp\":1620123760664},\"errors\":[{\"message\":\"A contact with email 111@gmail.com already exists.\",\"in\":\"email\"}],\"status\":\"error\",\"correlationId\":\"36604a00-5b8a-4cfc-84a0-938e5065c69d\",\"category\":\"OBJECT_ALREADY_EXISTS\",\"error\":\"CONTACT_EXISTS\"}"

2021-05-04 10:30:21am
409

2021-05-04 10:30:21am
""

2021-05-04 10:45:29am NEW contact created
first_name - 111 Global
last_name - 
subject - 
message - 
email - 111global@gmail.com

2021-05-04 10:45:29am
"Email not sent "

2021-05-04 10:46:19am NEW contact created
first_name - WP MAIL CUSTOM
last_name - 
subject - 
message - 
email - adfafd@gmail.com

2021-05-04 10:46:19am
"Email not sent "

2021-05-04 10:47:28am NEW contact created
first_name - test email 
last_name - 
subject - 
message - 
email - 222@gmail.com

2021-05-04 10:47:28am
"Email not sent "

2021-05-04 10:49:27am NEW contact created
first_name - options test
last_name - 
subject - 
message - 
email - test@gmai.com

2021-05-04 10:49:28am
"Email sent successfully"

2021-05-04 11:02:57am - NEW contact
first_name - Wow
last_name - Now
subject - Good
message - Feel
email - emotion@gmail.com

2021-05-04 11:02:57am
"Email sent successfully"

2021-05-04 11:20:02am - NEW contact
first_name - TEst
last_name - lates
subject - nnow
message - do good
email - lala@gmail.com

2021-05-04 11:20:02am
"Hotspot error response: {\"message\":\"Contact already exists\",\"identityProfile\":{\"vid\":251,\"identity\":[{\"value\":\"lala@gmail.com\",\"type\":\"EMAIL\",\"timestamp\":1619779830433,\"isPrimary\":true},{\"value\":\"14dc428f-baf9-4489-a0ab-efddf455b15c\",\"type\":\"LEAD_GUID\",\"timestamp\":1619779830487}],\"linkedVid\":[],\"isContact\":true,\"savedAtTimestamp\":1619779830493},\"errors\":[{\"message\":\"A contact with email lala@gmail.com already exists.\",\"in\":\"email\"}],\"status\":\"error\",\"correlationId\":\"96105350-2cdb-4665-9df9-fa68dcb74e6b\",\"category\":\"OBJECT_ALREADY_EXISTS\",\"error\":\"CONTACT_EXISTS\"}\nStatus code: 409\nCurl errors: "

2021-05-04 11:20:06am - NEW contact
first_name - TEst
last_name - lates
subject - nnow
message - do good
email - lalaz@gmail.com

2021-05-04 11:20:06am
"Email sent successfully"